7.8682095486780201e-01,1.9271058195813772e-02,5.2064315257349170e-01,1.4003945653337477e-01,4.9977436000503833e-01
2.5048034068802871e-01,4.0490214481616765e-01,3.4467030607918775e-01,5.4385606750501769e-01,4.1937002405444829e-01
7.1067122897865553e-01,2.5131781792803753e-01,2.7419560360286255e-01,5.2191571007176729e-01,7.4428051997155387e-01
9.4666780096097036e-01,2.2712438627926761e-02,5.6103210017639304e-01,8.5707728355282131e-01,2.4916812957858261e-01
